%YAML 1.1
%TAG !u! tag:unity3d.com,2011:
--- !u!21 &2100000
Material:
  serializedVersion: 3
  m_ObjectHideFlags: 0
  m_PrefabParentObject: {fileID: 0}
  m_PrefabInternal: {fileID: 0}
  m_Name: Car_Material
  m_Shader: {fileID: 4800000, guid: f183ce31f796144488be6cdc4441864f, type: 3}
  m_ShaderKeywords: []
  m_SavedProperties:
    serializedVersion: 2
    m_TexEnvs:
      data:
        first:
          name: _MainTex
        second:
          m_Texture: {fileID: 2800000, guid: c7a2a06109ac744d99656f550387fd0e, type: 3}
          m_Scale: {x: 1, y: 1}
          m_Offset: {x: 0, y: 0}
    m_Floats: {}
    m_Colors:
      data:
        first:
          name: _Color
        second: {r: .945098042, g: .898039222, b: .0235294122, a: 0}
--- !u!1002 &2100001
EditorExtensionImpl:
  serializedVersion: 6
